Titanic
…
Finally, lets predict results with the original df_test data frame.

#apply model
df_test_norm$score <- predict(mod3, newdata = df_test_norm)

df_final <- df_test_norm %>% mutate(score_prob = exp(score)/(1 + exp(score)),
                                    Survived = if_else(score_prob > 0.61, TRUE, FALSE) %>% as.numeric(),
                                    PassengerId = as.double(PassengerId)) %>% 
  select(PassengerId,Survived)

df_final <- df_final %>% distinct()
df_final %>% return()

## # A tibble: 418 x 2
##    PassengerId Survived
##          <dbl>    <dbl>
##  1         892        0
##  2         893        0
##  3         894        0
##  4         895        0
##  5         896        1
##  6         897        0
##  7         898        0
##  8         899        0
##  9         900        1
## 10         901        0
## # ... with 408 more rows
…
